^C:\USERS\LENOVOI7\SOURCE\REPOS\COMPUER VIRUS\COMPUER VIRUS\MAIN.CPP
C:\USERS\LENOVOI7\SOURCE\REPOS\COMPUER VIRUS\COMPUER VIRUS\DEBUG\VC142.PDB
C:\USERS\LENOVOI7\SOURCE\REPOS\COMPUER VIRUS\COMPUER VIRUS\DEBUG\VC142.IDB
C:\USERS\LENOVOI7\SOURCE\REPOS\COMPUER VIRUS\COMPUER VIRUS\DEBUG\MAIN.OBJ
